<svg xmlns="http://www.w3.org/2000/svg" xmlns:xlink="http://www.w3.org/1999/xlink" width="135" height="40" viewBox="0 0 135 40">
    <defs>
        <rect id="a" width="135" height="40" rx="3.712"/>
    </defs>
    <g fill="none" fill-rule="evenodd">
        <g>
            <use fill="#000" xlink:href="#a"/>
            <rect width="134.072" height="39.072" x=".464" y=".464" stroke="#A6A6A6" stroke-width=".928" rx="3.712"/>
            <rect width="134.5" height="39.5" x=".25" y=".25" stroke="#8F8F8F" stroke-width=".5" rx="3.712"/>
        </g>
        <path fill="#FFF" d="M51.818 30.72h2.269L49.12 16.986h-2.298L41.855 30.72h2.193l1.268-3.645h5.244l1.258 3.645zm-3.956-11.24h.162l1.992 5.805H45.86l2.003-5.805zm12.241.705c-1.41 0-2.631.704-3.26 1.884h-.153v-1.713h-1.973v13.723h2.05v-4.93h.162c.543 1.094 1.716 1.742 3.193 1.742 2.622 0 4.29-2.066 4.29-5.358 0-3.293-1.668-5.348-4.309-5.348zm-.581 8.869c-1.716 0-2.794-1.351-2.794-3.512 0-2.17 1.078-3.52 2.803-3.52 1.735 0 2.775 1.322 2.775 3.51 0 2.2-1.04 3.522-2.784 3.522zm11.212-8.87c-1.411 0-2.631.705-3.26 1.885h-.153v-1.713h-1.974v13.723h2.05v-4.93h.162c.544 1.094 1.716 1.742 3.194 1.742 2.622 0 4.29-2.066 4.29-5.358 0-3.293-1.668-5.348-4.31-5.348zm-.582 8.87c-1.716 0-2.793-1.351-2.793-3.512 0-2.17 1.077-3.52 2.803-3.52 1.735 0 2.774 1.322 2.774 3.51 0 2.2-1.04 3.522-2.784 3.522zm9.23-2.027c.152 2.455 2.202 4.025 5.253 4.025 3.26 0 5.3-1.646 5.3-4.273 0-2.065-1.163-3.207-3.984-3.863l-1.516-.371c-1.793-.419-2.517-.98-2.517-1.96 0-1.238 1.125-2.047 2.812-2.047 1.602 0 2.708.79 2.908 2.056h2.078c-.124-2.313-2.164-3.94-4.957-3.94-3.003 0-5.005 1.627-5.005 4.073 0 2.018 1.134 3.217 3.622 3.797l1.774.428c1.82.429 2.621 1.057 2.621 2.103 0 1.219-1.258 2.104-2.974 2.104-1.84 0-3.117-.828-3.299-2.132h-2.116zM91.7 17.844v2.56h-1.707v1.722H91.7v5.853c0 1.998.906 2.797 3.184 2.797.4 0 .772-.047 1.096-.104v-1.704c-.286.029-.448.048-.762.048-1.02 0-1.468-.476-1.468-1.56v-5.33h2.326v-1.723H93.75v-2.56H91.7zm9.458 11.257c-1.783 0-2.784-1.303-2.784-3.568 0-2.246 1.001-3.56 2.784-3.56 1.773 0 2.784 1.314 2.784 3.56 0 2.255-1.011 3.568-2.784 3.568zm0 1.818c3.031 0 4.89-2.027 4.89-5.386 0-3.34-1.868-5.377-4.89-5.377-3.032 0-4.9 2.037-4.9 5.377 0 3.36 1.859 5.386 4.9 5.386zm5.825-.2h2.05V24.6c0-1.456 1.096-2.436 2.64-2.436.344 0 .973.067 1.135.124V20.27c-.219-.057-.61-.085-.905-.085-1.354 0-2.498.742-2.794 1.76h-.152v-1.59h-1.974V30.72zm10.44-8.821c1.516 0 2.508 1.056 2.555 2.683h-5.243c.114-1.618 1.172-2.683 2.688-2.683zm2.546 6.023c-.382.81-1.23 1.257-2.47 1.257-1.64 0-2.697-1.152-2.764-2.97v-.114h7.331v-.713c0-3.255-1.745-5.225-4.633-5.225-2.927 0-4.786 2.103-4.786 5.415s1.82 5.348 4.795 5.348c2.374 0 4.033-1.142 4.5-2.998h-1.973zM43.776 6.268v6.54h2.365c1.953 0 3.083-1.201 3.083-3.29 0-2.058-1.14-3.25-3.083-3.25h-2.365zm1.017.925h1.235c1.357 0 2.16.86 2.16 2.338 0 1.5-.789 2.352-2.16 2.352h-1.235v-4.69zm8.01 4.844c-.85 0-1.326-.62-1.326-1.7 0-1.069.476-1.694 1.325-1.694.845 0 1.326.625 1.326 1.695 0 1.074-.481 1.7-1.326 1.7zm0 .866c1.443 0 2.328-.966 2.328-2.565 0-1.59-.89-2.56-2.329-2.56-1.443 0-2.333.97-2.333 2.56 0 1.6.885 2.565 2.333 2.565zm9.979-5.03h-.976l-.881 3.765h-.077L59.83 7.872h-.935l-1.017 3.766h-.073l-.885-3.766h-.99l1.362 4.935h1.003l1.017-3.634h.077l1.022 3.634h1.012l1.358-4.935zm1.24 4.934h.976V9.921c0-.77.481-1.25 1.267-1.25.726 0 1.08.393 1.08 1.186v2.95h.976V9.613c0-1.174-.622-1.836-1.725-1.836-.744 0-1.321.331-1.562.88h-.072v-.785h-.94v4.935zm5.948 0h.976v-6.86h-.976v6.86zm4.759-.77c-.85 0-1.326-.62-1.326-1.7 0-1.069.477-1.694 1.326-1.694.844 0 1.325.625 1.325 1.695 0 1.074-.481 1.7-1.325 1.7zm0 .866c1.443 0 2.329-.966 2.329-2.565 0-1.59-.89-2.56-2.33-2.56-1.443 0-2.333.97-2.333 2.56 0 1.6.885 2.565 2.334 2.565zm5.348-.834c-.53 0-.917-.259-.917-.703 0-.435.31-.666.99-.711l1.208-.077v.412c0 .612-.545 1.079-1.28 1.079zm-.25.82c.65 0 1.19-.281 1.485-.775h.077v.693h.94V9.436c0-1.042-.699-1.659-1.938-1.659-1.122 0-1.92.544-2.02 1.392h.944c.109-.35.486-.549 1.03-.549.668 0 1.013.295 1.013.816v.426l-1.34.077c-1.175.072-1.838.584-1.838 1.473 0 .901.694 1.477 1.648 1.477zm5.93 0c.682 0 1.258-.322 1.553-.861h.077v.78h.936V5.946h-.976v2.71h-.073c-.268-.544-.84-.866-1.516-.866-1.249 0-2.052.988-2.052 2.547 0 1.563.794 2.551 2.052 2.551zm.278-4.223c.817 0 1.33.648 1.33 1.676 0 1.033-.509 1.672-1.33 1.672-.827 0-1.322-.63-1.322-1.676 0-1.038.5-1.672 1.322-1.672zm8.845 3.371c-.849 0-1.326-.62-1.326-1.7 0-1.069.477-1.694 1.326-1.694.844 0 1.326.625 1.326 1.695 0 1.074-.482 1.7-1.326 1.7zm0 .866c1.444 0 2.329-.966 2.329-2.565 0-1.59-.89-2.56-2.33-2.56-1.443 0-2.333.97-2.333 2.56 0 1.6.886 2.565 2.334 2.565zm3.733-.096h.976V9.921c0-.77.48-1.25 1.266-1.25.727 0 1.08.393 1.08 1.186v2.95h.977V9.613c0-1.174-.622-1.836-1.725-1.836-.745 0-1.321.331-1.562.88h-.073v-.785h-.94v4.935zm9.022-6.13v1.218h-.813v.82h.813v2.787c0 .952.431 1.333 1.516 1.333.19 0 .368-.023.522-.05v-.811c-.136.013-.213.022-.363.022-.486 0-.699-.226-.699-.743V8.715h1.108v-.82h-1.108V6.676h-.976zm3.474 6.13h.976V9.925c0-.747.495-1.25 1.294-1.25.735 0 1.103.398 1.103 1.187v2.945h.976V9.622c0-1.174-.636-1.84-1.748-1.84-.744 0-1.316.33-1.557.884h-.077v-2.72h-.967v6.861zm7.986-4.2c.722 0 1.194.503 1.217 1.278h-2.497c.055-.77.558-1.278 1.28-1.278zm1.212 2.868c-.181.385-.585.598-1.175.598-.781 0-1.285-.548-1.317-1.414v-.054h3.491v-.34c0-1.55-.83-2.488-2.206-2.488-1.394 0-2.28 1.002-2.28 2.579 0 1.577.868 2.547 2.284 2.547 1.13 0 1.92-.544 2.143-1.428h-.94z"/>
        <g fill="#FFF">
            <path d="M30.063 20.19c-.03-3.319 2.722-4.933 2.848-5.009-1.559-2.268-3.975-2.578-4.824-2.603-2.03-.213-3.998 1.212-5.032 1.212-1.054 0-2.646-1.192-4.362-1.157-2.208.034-4.274 1.31-5.406 3.292-2.338 4.04-.595 9.977 1.645 13.243 1.12 1.6 2.43 3.385 4.144 3.322 1.676-.068 2.303-1.066 4.326-1.066 2.004 0 2.593 1.066 4.34 1.025 1.8-.027 2.932-1.605 4.014-3.22 1.295-1.831 1.815-3.639 1.835-3.731-.041-.014-3.493-1.329-3.528-5.307M26.761 10.43c.902-1.126 1.519-2.658 1.348-4.212-1.306.058-2.938.901-3.878 2.002-.831.97-1.574 2.56-1.382 4.056 1.466.11 2.971-.738 3.912-1.847"/>
        </g>
    </g>
</svg>
